  646  rails s -p 80 -d
  647  top
  648  ps aux | grep rails
  649  kill -9 11300
  650  rails s
  651  clear
  652  rails s -p 80 -d
  653  exit
  654  ps aux | grep rails
  655  kill -9 17473
  656  ps aux | grep rails
  657  rails s -p 80 -d
  658  ps aux | grep rails
  659  kill -9 20130
  660  exit
  661  clear
  662  ps aux | grep rails
  663  kill -9 20255
  664  clear
  665  rails s -p 80
  666  clear
  667  exit
  668  mysqldump –h spacecomby.cefjytlskjk3.ap-southeast-1.rds.amazonaws.com instance endpoint -u spacecomby –p spacecomby1--port 3306 --single-transaction --routines --triggers —databases  spacecomby spacecomby2> /var/www/rds-dump.sql  
  669  mysqldump –h spacecomby.cefjytlskjk3.ap-southeast-1.rds.amazonaws.com instance endpoint -u spacecomby –p spacecomby1--port 3306 --single-transaction --routines --triggers —databases  spacecomby> /var/www/rds-dump.sql  
  670  mysqldump –h spacecomby.cefjytlskjk3.ap-southeast-1.rds.amazonaws.com instance endpoint -u spacecomby –p spacecomby1--port 3306 --single-transaction --routines --triggers —databases  spacecomby> ./var/www/rds-dump.sql
  671  mysqldump –h spacecomby.cefjytlskjk3.ap-southeast-1.rds.amazonaws.com instance endpoint -u spacecomby –p spacecomby1--port 3306 --single-transaction --routines --triggers —databases  spacecomby> /var/www/rds-dump.sql
  672  mysqldump –h spacecomby.cefjytlskjk3.ap-southeast-1.rds.amazonaws.com instance endpoint -u spacecomby –p spacecomby1 --port 3306 --single-transaction --routines --triggers —databases  spacecomby> /var/www/rds-dump.sql
  673  mysqldump –h spacecomby.cefjytlskjk3.ap-southeast-1.rds.amazonaws.com instance endpoint -u spacecomby –p spacecomby1 --port 3306 --single-transaction --routines --triggers —databases  spacecomby > /var/www/rds-dump.sql
  674  mysqldump --databases spacecomby -v -h spacecomby.cefjytlskjk3.ap-southeast-1.rds.amazonaws.com -u spacecomby -P 3306 -p > rdsmyDB.sql 
  675  ls
  676  rm rds-dump.sql 
  677  rm rdsmyDB.sql 
  678  mysqldump --databases spacecomby -v -h spacecomby.cefjytlskjk3.ap-southeast-1.rds.amazonaws.com -u spacecomby -P 3306 -p > rdsmyDB.sql 
  679  ls
  680  rm rdsmyDB.sql 
  681  ls
  682  wget freevps.us/downloads/bench.sh -O - -o /dev/null|bash
  683  ls
  684  wget freevps.us/downloads/bench.sh -O - -o /dev/null|bash
  685  wget http://cachefly.cachefly.net/100mb.test
  686  rm 100mb.test 
  687  top
  688  ls
  689  wget http://162.217.135.4/1000MB.test
  690  ls
  691  rm 1000MB.test 
  692  top
  693  vim /etc/apt/sources.list
  694  wget -O- https://download.newrelic.com/548C16BF.gpg | apt-key add -
  695  ls
  696  apt-get update
  697  top
  698  apt-get update && apt-get upgrade
  699  apt-get install newrelic-sysmond
  700  vim /etc/newrelic/nrsysmond.cfg 
  701  nrsysmond-config --set license_key=accdef0fb6bc789bfe8cedffc0c77f854acc2f05
  702  vim /etc/newrelic/nrsysmond.cfg 
  703  /etc/init.d/newrelic-sysmond start
  704  top
  705  ls
  706  /etc/init.d/newrelic-sysmond restart
  707  top
  708  rails s -p 80
  709  clear
  710  ps aux | grep rails
  711  clear
  712  rake db:drop
  713  rake db:create
  714  rake db:migrate
  715  rake db:seed
  716  rails s -p 80
  717  clear
  718  rails s -p 80 -d
  719  kill -9 23231
  720  rails s -p 80 -d
  721  cd /var/www/Github/
  722  rails s -p 80 -d
  723  top
  724  ps aux | grep ruby
  725  kill -9 23749
  726  rails s -p 80 -d
  727  ps aux | grep ruby
  728  kill -9 24330
  729  rails s -p 80 -d
  730  ps aux | grep ruby
  731  kill -9 24345
  732  rails s -p 80 -d
  733  ps aux | grep ruby
  734  kill -9 24659
  735  rails s -p 80 -d
  736  ps aux | grep ruby
  737  kill -9 24705
  738  rails s -p 80 -d
  739  ps aux | grep ruby
  740  kill -9 24743
  741  rails s -p 80
  742  bundle install
  743  rails s -p 80
  744  ps aux | grep ruby
  745  kill -9 24945
  746  rails s -p 80
  747  rails s -p 80 -d
  748  ps aux | grep ruby
  749  kill -9 25060
  750  exit
  751  rails s -p 80 -d
  752  ps aux | grep ruby
  753  kill -9 31755
  754  rails s -p 80 -d
  755  ps aux | grep ruby
  756  kill -9 32629
  757  ps aux | grep ruby
  758  rails s -p 80 -d
  759  ps aux | grep ruby
  760  kill -9 4791
  761  ps aux | grep ruby
  762  kill -9 32675
  763  ps aux | grep ruby
  764  clear
  765  ps aux | grep ruby
  766  kill -9 5836
  767  rails s -p 80 -d
  768  cd /var/www
  769  cd Github/
  770  ls
  771  rails s -p 80 -d
  772  ps aux | grep ruby
  773  kill -9 8646
  774  ps aux | grep ruby
  775  clear
  776  rails g model message
  777  rails -v
  778  rails d message
  779  clear
  780  rails d model message
  781  cler
  782  clear
  783  exit
  784  ps aux | grep rub
  785  kill -9 14309
  786  rails s -p 80
  787  exit
  788  ps aux | grep rub
  789  rails s -p 80
  790  rails s -p 80 -d
  791  ps aux | grep ruby
  792  kill -9 19531
  793  cd ..
  794  exit
  795  rails s -p 80 -d
  796  rails s -p 80 -d
  797  ps aux | grep ruby
  798  kill -9 20167
  799  bundle install
  800  rails s -p 80 -d
  801  ps aux | grep solr
  802  clear
  803  ps aux | grep rails
  804  kill -9 23243
  805  rails s -p 80
  806  clear
  807  exit
  808  ps aux | grep rails
  809  exit
  810  rails s -p 80 -d
  811  exit
  812  cd /var/www/Github/
  813  ps aux | grep rails
  814  kill -9 21454
  815  rails s -p 80 -d
  816  ps aux | grep rails
  817  clear
  818  exit
  819  kill -9 28807
  820  ls
  821  cd /var/www/Github/
  822  ls
  823  bundle exec rake sunspot:solr:start
  824  rails s -p 80
  825  rails s -p 80 -d
  826  reboot
  827  rails s -p 80 -d
  828  top
  829  bundle exec rake sunspot:solr:reindex
  830  bundle exec rake sunspot:solr:stop
  831  bundle exec rake sunspot:solr:reindex
  832  bundle exec rake sunspot:solr:start
  833  bundle exec rake sunspot:solr:reindex
  834  rails s -p 80 -d
  835  rm -rd solr/
  836  ls
  837  bundle exec rake sunspot:solr:reindex
  838  ls
  839  cd /var/www/Github/
  840  ls
  841  bundle install
  842  bundle exec rake sunspot:solr:start
  843  rake sunspot:solr:start
  844  rake sunspot:solr:reindex
  845  apt-get update && apt-get upgrade 
  846  rake sunspot:solr:reindex
  847  rake sunspot:solr:stop
  848  bundle update sunspot_solr
  849  rake sunspot:solr:stop
  850  ls
  851  rm -rvf solr
  852  ls
  853  rake sunspot:solr:reindex
  854  rake sunspot:solr:reindex RAILS_ENV=development
  855  rm solr/pids/production/sunspot-solr-production.pid
  856  ls
  857  rake sunspot:solr:start RAILS_ENV=development
  858  ls
  859  cd solr/
  860  ls
  861  cd pids/development/
  862  ls
  863  vim sunspot-solr-development.pid 
  864  :q
  865  cd ..
  866  ls
  867  chmod -R 777 solr
  868  rake sunspot:solr:reindex
  869  rake sunspot:solr:start
  870  rake sunspot:solr:stop
  871  rake sunspot:solr:start
  872  rake sunspot:solr:reindex
  873  rake sunspot:solr:reindex RAILS_ENV=development
  874  rails s -p 80
  875  rails s -p 80 -d
  876  ps aux | grep rails 
  877  kill -9 2103
  878  rails s -p 80 -d
  879  rails s -h
  880  cd /var/www/Github/
  881  ls
  882  sudo bundle exec rake sunspot:solr:start --trace
  883  exit
  884  rake sunspot:solr:start --trace
  885  rails s
  886  rm config/sunspot.yml 
  887  rails generate sunspot_rails:install
  888  sunspot:solr:run
  889  sunspot:solr:start
  890  rake sunspot:solr:start
  891  kill -9 1616
  892  rake sunspot:solr:start
  893  sudo update-alternatives --config java
  894  sudo apt-get install openjdk-6-jdk
  895  rake sunspot:solr:start
  896  rake sunspot:solr:stop
  897  rake sunspot:solr:reindex
  898  vim config/sunspot.yml 
  899  rake sunspot:solr:reindex
  900  vim config/sunspot.yml 
  901  rake sunspot:solr:reindex
  902  rails s -p 80 -d
  903  ps aux | grep rails
  904  kill -9 2107
  905  rails s -p 80 -d
  906  rails s -p 80
  907  rails s -p 80 -d
  908  ps aux | grep rails
  909  kill -9 1838
  910  rake db:drop
  911  rake db:create
  912  rake db:migrate
  913  rake db:seed
  914  cd ..
  915  exit
  916  rails s -p 80 -d
  917  clear
  918  exit
  919  ps aux | grep rails
  920  kill -9 4793
  921  exit
  922  rails s -p 80 -d
  923  clear
  924  ps aux | grep rails
  925  kill -9 5084
  926  exit
  927  ps aux | grep rails
  928  kill -9 8695
  929  rails s -p 80 -d
  930  ps aux | grep ra
  931  ps aux | grep rails
  932  exit
  933  ps aux | grep rails
  934  clear
  935  exit
  936  ps aux | grep rails
  937  exit
  938  cd /var/www/Github
  939  l
  940  ls
  941  vim config/sunspot.yml 
  942  ps aux | grep rails
  943  kill -9 10459
  944  rake sunspot:solr:stop
  945  rake sunspot:solr:start
  946  rake sunspot:solr:reindex
  947  rails s -p 80
  948  vim config/sunspot.yml 
  949  ps aux | grep rails
  950  rake sunspot:solr:start
  951  exit
  952  rails s -p 80 -d
  953  clear
  954  vim config/sunspot.yml 
  955  cd /var/www/Github
  956  vim config/sunspot.yml 
  957  rake sunspot:solr:stop
  958  rm -rd solr
  959  rm -rs solr
  960  rm -rf solr
  961  ls
  962  rake sunspot:solr:start
  963  rake sunspot:solr:reindex
  964  rake db:drop
  965  rake db:create
  966  rake db:migrat
  967  rake db:seed
  968  vim config/sunspot.yml 
  969  rake sunspot:solr:stop
  970  rm -rf solr
  971  rake sunspot:solr:start
  972  rake sunspot:solr:reindex
  973  vim config/sunspot.yml 
  974  vim config/initializers/
  975  vim app/models/place.rb 
  976  cd ..
  977  ls
  978  rm Github.zip 
  979  zip -r test.zip Github/
  980  rake sunspot:solr:stop
  981  rake sunspot:solr:start
  982  rails s -p 80
  983  sudo service jetty restart
  984  rails s
  985  vim config/sunspot.yml 
  986  vim Gemfile
  987  bundle exec gem uninstall sunspot_solr
  988  bundle exec gem uninstall sunspot_rails
  989  bundle install
  990  rake sunspot:solr:stop
  991  rake sunspot:solr:start
  992  java --version
  993  java -version
  994  rake sunspot:solr:reindex
  995  rails s -p 80
  996  bundle exec gem uninstall sunspot_rails
  997  bundle exec gem uninstall sunspot_solr
  998  bundle exec gem uninstall sunspot_rails
  999  vim Gemfile
 1000  bundle install
 1001  rake sunspot:solr:stop
 1002  rake sunspot:solr:reindex
 1003  rails s
 1004  vim config/sunspot.yml 
 1005  rails s -p 80
 1006  rake sunspot:solr:start
 1007  rails s -p 80
 1008  vim config/sunspot.yml 
 1009  rake sunspot:solr:stop
 1010  rake sunspot:solr:start
 1011  rails s -p 80
 1012  vim config/sunspot.yml 
 1013  rake sunspot:solr:stop
 1014  rake sunspot:solr:start
 1015  rails s -p 80
 1016  vim config/sunspot.yml 
 1017  rails s -p 80
 1018  vim config/sunspot.yml 
 1019  rake sunspot:solr:stop
 1020  rake sunspot:solr:start
 1021  rails s -p 80
 1022  rake sunspot:solr:stop
 1023  rake sunspot:solr:start
 1024  rake sunspot:solr:reindex
 1025  rails s -p 80
 1026  vim config/sunspot.yml 
 1027  rake sunspot:solr:stop
 1028  rake sunspot:solr:start
 1029  rake sunspot:solr:reindex
 1030  rails s -p 80
 1031  vim config/sunspot.yml 
 1032  rake sunspot:solr:stop
 1033  rake sunspot:solr:start
 1034  rails s -p 80
 1035  vim config/sunspot.yml 
 1036  rake sunspot:solr:stop
 1037  rake sunspot:solr:start
 1038  rails s -p 80
 1039  rake sunspot:solr:stop
 1040  RAILS_ENV=development rake sunspot:solr:start
 1041  RAILS_ENV=development rake sunspot:solr:stop
 1042  rails s -p 80
 1043  RAILS_ENV=development rake sunspot:solr:stop
 1044  vim config/sunspot.yml 
 1045  RAILS_ENV=development rake sunspot:solr:stop
 1046  RAILS_ENV=development rake sunspot:solr:start
 1047  rails s -p 80
 1048  vim config/sunspot.yml 
 1049  sudo update-alternatives --config java
 1050  java -version
 1051  sudo add-apt-repository ppa:webupd8team/java
 1052  sudo apt-get update && sudo apt-get install oracle-jdk7-installer
 1053  sudo apt-get install oracle-java6-installer
 1054  java -version
 1055  sudo update-alternatives --config java
 1056  rake sunspot:solr:stop
 1057  rake sunspot:solr:start
 1058  rails s -p 80
 1059  rake sunspot:solr:stop
 1060  rake sunspot:solr:start
 1061  rails s -p 80
 1062  rake sunspot:solr:stop
 1063  rake sunspot:solr:start
 1064  rake sunspot:solr:reindex
 1065  rails s -p 80
 1066  rake sunspot:solr:stop
 1067  ls
 1068  rm -rf solr/
 1069  rake sunspot:solr:start
 1070  rails s -p 80
 1071  rake sunspot:solr:reindex
 1072  rails s -p 80
 1073  ls
 1074  rm -rf solr
 1075  bundle exec rake sunspot:solr:stop
 1076  bundle exec rake sunspot:solr:start
 1077  rails s
 1078  clear
 1079  bundle exec rake sunspot:solr:stop
 1080  ls
 1081  rm -rf solr
 1082  ls
 1083  bundle exec rake sunspot:solr:start
 1084  bundle exec rake sunspot:solr:reindex
 1085  rails s
 1086  clear
 1087  rake db:drop
 1088  rake db:create
 1089  rake db:migrate
 1090  rake db:seed
 1091  exit
 1092  cd /var/www/Github/
 1093  ls
 1094  rake sunspot:solr:stop
 1095  rails s -p 80
 1096  rake sunspot:solr:stop
 1097  rm -rf solr/
 1098  rake sunspot:solr:start
 1099  rails s -p 80
 1100  cd ..
 1101  ls
 1102  mv Github Github1
 1103  ls
 1104  unzip Github2.zip 
 1105  ls
 1106  cd Github
 1107  ./sc/dev.sh 
 1108  bundle exec rake sunspot:solr:start
 1109  vim Gemfile
 1110  vim config/database.yml 
 1111  bundle install
 1112  rails s -p 80
 1113  bundle exec rake sunspot:solr:stop
 1114  bundle exec rake sunspot:solr:start
 1115  bundle exec rake sunspot:solr:reindex
 1116  rails s -p 80
 1117  ls
 1118  cd ..
 1119  ls
 1120  zip Github1.zip
 1121  zip -r Github1.zip Github1
 1122  ls
 1123  rm -rf Github
 1124  reboot
 1125  ls
 1126  bundle exec rake sunspot:solr:start
 1127  bundle exec rake sunspot:solr:reindex
 1128  rails s -p 80
 1129  ls
 1130  cd ..
 1131  ls
 1132  rm Github.zip 
 1133  rm test.zip 
 1134  ls
 1135  rm -rf __MACOSX/
 1136  ls
 1137  zip -r final.zip Github
 1138  lols
 1139  ls
 1140  exit
 1141  ps aux | grep rails
 1142  kill -9 1946
 1143  clear
 1144  exit
 1145  rails s -p 80 -d
 1146  clear
 1147  ps aux | grep rails
 1148  kill -9 4824
 1149  exit
 1150  top
 1151  cd /var/www/Github
 1152  ls
 1153  bundle exec rake sunspot:solr:start
 1154  bundle exec rake sunspot:solr:reinde
 1155  bundle exec rake sunspot:solr:reindex
 1156  rails s -p 80 -d
 1157  ls
 1158  vim app/views/places/show.html.erb 
 1159  rails s -p 80 -d
 1160  apt-get update && apt-get upgrade -y
 1161  ls
 1162  top
 1163  cd /var/www/
 1164  ls
 1165  zip -r showcase.zip Github/
 1166  exit
 1167  ps aux | grep rails
 1168  kill -9 5490
 1169  clear
 1170  exit
 1171  clea
 1172  ps aux | grep rails
 1173  kill -9 26503
 1174  clear
 1175  ps aux | grep rails
 1176  exit
 1177  rails s -d
 1178  ps aux | grep rails
 1179  kill -9 28364
 1180  clear
 1181  rails s -p 80 -d
 1182  cd /var/www/
 1183  ls
 1184  rm showcase.zip 
 1185  ls
 1186  service apache2 restart
 1187  ls
 1188  rm showcase.zip vim /etc/apache2/sites-available/default-ssl.conf 
 1189  vim /etc/apache2/sites-available/default-ssl.conf 
 1190  ls /etc/apache2/sites-available/
 1191  ls /etc/apache2/sites-enabled/
 1192  ls /etc/apache2/sites-available/000-default.conf 
 1193  vim /etc/apache2/sites-available/000-default.conf 
 1194  vim /etc/apache2/sites-enabled/default-ssl.conf 
 1195  vim /etc/apache2/sites-available/000-default.conf 
 1196  vim /etc/apache2/sites-enabled/default-ssl.conf 
 1197  vim /etc/apache2/sites-available/000-default.conf 
 1198  exit
 1199  ps aux | grep rails
 1200  kill -9 4287
 1201  rails s -p 80
 1202  vim /etc/apache2/sites-enabled/default-ssl.conf 
 1203  vim /etc/apache2/sites-available/000-default.conf 
 1204  vim /etc/apache2/sites-enabled/default-ssl.conf 
 1205  service apache2 restart
 1206  vim /etc/apache2/sites-enabled/default-ssl.conf 
 1207  service apache2 restart
 1208  rails s -p 80
 1209  vim /etc/apache2/sites-available/default-ssl.conf 
 1210  vim /etc/apache2/sites-available/000-default.conf 
 1211  vim /etc/apache2/sites-available/default-ssl.conf 
 1212  rails s -p 80
 1213  cd /var/www/Github/
 1214  rails s -p 80
 1215  vim /etc/apache2/sites-available/
 1216  vim /etc/apache2/sites-available/000-default.conf 
 1217  vim /etc/apache2/sites-available/default-ssl.conf 
 1218  service apache2 restart
 1219  rails s -p 80
 1220  vim /etc/apache2/sites-enabled/default-ssl.conf 
 1221  vim /etc/apache2/sites-enabled/000-default.conf 
 1222  vim /etc/apache2/sites-available/000-default.conf 
 1223  vim /etc/apache2/sites-available/default-ssl.conf 
 1224  service apache2 restart
 1225  vim /etc/apache2/sites-available/default-ssl.conf 
 1226  vim /etc/apache2/sites-enabled/default-ssl.conf 
 1227  vim /etc/apache2/sites-available/default-ssl.conf 
 1228  sudo a2ensite default-ssl
 1229  sudo a2ensite default-ssl reload
 1230  sudo a2ensite default-ssl stop
 1231  sudo service apache2 reload
 1232  rm /etc/apache2/sites-available/.default-ssl.conf 
 1233  rm /etc/apache2/sites-available/default-ssl.conf 
 1234  sudo service apache2 reload
 1235  vim /etc/apache2/sites-available/default-ssl.conf 
 1236  vim /etc/apache2/sites-available/default-ssl.conf
 1237  sudo service apache2 reload
 1238  rails s -p 80
 1239  vim /etc/apache2/sites-available/default-ssl.conf 
 1240  sudo service apache2 reload
 1241  rails s -p 80
 1242  cd ..
 1243  ls
 1244  zip -r final.zip Github/
 1245  vim /etc/apache2/sites-enabled/default-ssl.conf 
 1246  vim /etc/apache2/sites-enabled/000-default.conf 
 1247  vim /etc/apache2/sites-available/000-default.conf
 1248  ls
 1249  vim /etc/apache2/sites-available/000-default.c
 1250  service apache2 restart
 1251  vim /etc/apache2/sites-enabled/default-ssl.conf 
 1252  bundle exec rake sunspot:solr:start
 1253  rails s -p 80 -d
 1254  sudo a2enmod ssl
 1255  service apache2 restart
 1256  sudo mkdir /etc/apache2/ssl
 1257  sudo openssl req -x509 -nodes -days 365 -newkey rsa:2048 -keyout /etc/apache2/ssl/apache.key -out /etc/apache2/ssl/apache.crt
 1258  vim /etc/apache2/sites-available/default-ssl
 1259  vim /etc/apache2/sites-available/default-ssl.conf 
 1260  sudo a2ensite default-ssl
 1261  service apache2 reload
 1262  sudo openssl req -x509 -nodes -days 365 -newkey rsa:2048 -keyout /etc/apache2/ssl/apache.key -out /etc/apache2/ssl/apache.crt
 1263  vim /etc/apache2/sites-available/default-ssl.conf 
 1264  service apache2 reload
 1265  vim /etc/apache2/sites-available/default-ssl.conf 
 1266  service apache2 reload
 1267  ps aux | grep rails
 1268  kill -9 1624
 1269  rails s -p 443
 1270  rails s -p 3000
 1271  rails s -p 80
 1272  ls
 1273  cd ..
 1274  zip -r final.zip Github/
 1275  ls
 1276  rails s -p 80 -d
 1277  cd Github/
 1278  rails s -p 80 -d
 1279  vim /etc/apache2/sites-available/default-ssl.conf 
 1280  vim /etc/apache2/sites-available/.default-ssl.conf 
 1281  vim /etc/apache2/sites-available/.default-ssl.conf.swp 
 1282  rm /etc/apache2/sites-available/.default-ssl.conf.swp 
 1283  vim /etc/apache2/sites-available/.default-ssl.conf 
 1284  service apache2 restart
 1285  vim /etc/apache2/sites-available/.default-ssl.conf 
 1286  service apache2 restart
 1287  sudo a2enmod ssl
 1288  sudo a2enmod rewrite
 1289  service apache2 restart
 1290  vim /etc/apache2/sites-available/default-ssl.conf 
 1291  service apache2 restart
 1292  vim /etc/apache2/sites-available/.default-ssl.conf 
 1293  service apache2 restart
 1294  vim /etc/apache2/sites-available/.default-ssl.conf 
 1295  service apache2 restart
 1296  vim /etc/apache2/sites-available/.default-ssl.conf 
 1297  vim /etc/apache2/sites-enabled/default-ssl.conf 
 1298  service apache2 restart
 1299  ls
 1300  ps aux | grep rails
 1301  rails s p -80
 1302  rails s -p 80
 1303  clear
 1304  ls
 1305  cd ..
 1306  ls
 1307  rm final.zip 
 1308  ls
 1309  clear
 1310  vim /etc/apache2/sites-available/default-ssl.conf 
 1311  rails s -p 80
 1312  rails s -p 80
 1313  ps aux | grep rails
 1314  rails s -p 443
 1315  rails s -p 80
 1316  vim config/environments/development.rb 
 1317  rails s -p 80
 1318  cd ..
 1319  mysqldump --databases spacecomby -v -h spacecomby.cefjytlskjk3.ap-southeast-1.rds.amazonaws.com -u spacecomby -P 3306 -p > rdsmyDB.sql 
 1320  ls
 1321  rm final.zip 
 1322  ls
 1323  rm rdsmyDB.sql 
 1324  cd ..
 1325  ls
 1326  mkdir www2
 1327  vim /etc/apache2/conf-enabled/
 1328  vim /etc/apache2/ports.conf 
 1329  vim /etc/apache2/apache2.conf 
 1330  cd /var/www/
 1331  vim .htaccess
 1332  ls
 1333  vim .htaccess
 1334  ls
 1335  vim index.html
 1336  service apache2 restart
 1337  rm .htaccess 
 1338  vim index.html
 1339  cd Github/
 1340  ls
 1341  rails s -p 80 -d
 1342  ..
 1343  bundle exec rake sunspot:solr:stop
 1344  ps aux | grep rails
 1345  kill -9 8445
 1346  shutdown now
 1347  bundle exec rake sunspot:solr:start
 1348  rails s -p 80 -d
 1349  ps aux | grep rails
 1350  kill -9 1696
 1351  ps aux | grep solr
 1352  rails s -p 80 -d
 1353  exit
 1354  bundle exec rake sunspot:solr:start
 1355  rails s -p 80 -d
 1356  ps aux | grep solr
 1357  ps aux | grep rails
 1358  kill -9 1640
 1359  clear
 1360  ps aux | grep solr
 1361  rails s -p 80 -d
 1362  ps aux | grep rails
 1363  kill -9 3045
 1364  clear
 1365  exit
 1366  rails s -p 80
 1367  rails s -p 80 -d
 1368  ps aux | grep rails
 1369  kill -9 4098
 1370  ps aux | grep rails
 1371  clear
 1372  rails s -p 80
 1373  vim config/routes.rb 
 1374  clear
 1375  cd ..
 1376  sudo apt-get thin
 1377  cd ..
 1378  sudo apt-get thin
 1379  sudo apt-get
 1380  cd ..
 1381  cd /var/www/Github/
 1382  vim config/application.rb 
 1383  clear
 1384  cd /etc/apache2/ssl
 1385  ls
 1386  sudo chmod 400 /etc/apache2/ssl/*
 1387  sudo a2enmod ssl
 1388  sudo a2enmod headers
 1389  cd /var/www/Github/
 1390  ls
 1391  clear
 1392  rails s -p 80
 1393  clear
 1394  cd
 1395  ls
 1396  cd /var/www/Github/
 1397  ls
 1398  vim config.ru
 1399  vim config/application.rb 
 1400  cd config
 1401  ls
 1402  cd /bin/
 1403  ls
 1404  cd rails
 1405  cd rail
 1406  cd ..
 1407  clear
 1408  cd /var/www/Github/
 1409  ls
 1410  gem install passenger
 1411  rvmsudo passenger-install-apache2-module
 1412  apt-get install libcurl4-openssl-dev
 1413  apt-get install apache2-threaded-dev
 1414  apt-get install libapr1-dev
 1415  apt-get install libaprutil1-dev
 1416  rvmsudo passenger-install-apache2-module
 1417  clear
 1418  rails s -p 80
 1419  vim app/views/welcome/index.html.erb 
 1420  vim app/views/layouts/application.html.erb
 1421  rails s -p 80
 1422  clear
 1423  vim app/views/layouts/application.html.erb
 1424  rails s -p 80
 1425  vim app/views/layouts/application.html.erb
 1426  rails s -p 80 -d
 1427  vim app/views/layouts/application.html.erb
 1428  clear
 1429  ps aux | grep rails
 1430  vim app/views/layouts/application.html.erb
 1431  exit
 1432  rails s -p 80 -d
 1433  ps aux | grep rails
 1434  kill -9 3155
 1435  ps aux | grep apache2
 1436  kill -9 3568
 1437  ps aux | grep apache2
 1438  rails s -p 80 
 1439  clear
 1440  ls
 1441  sudo su
 1442  exit
 1443  ps aux | grep rails
 1444  kill -9 21501
 1445  rails s -p 80 
 1446  clear
 1447  rails s -p 80 -d
 1448  cd ..
 1449  cd /etc/apache2/
 1450  ls
 1451  cd sites-available/
 1452  ls
 1453  vim spacecomby.conf 
 1454  history
 1455  sudo service apache2 restart
 1456  cd /var/www/Github/
 1457  ps aux | grep rails
 1458  kill -9 23386
 1459  rails s -p 80
 1460  sudo a2dismod ssl
 1461  sudo service apache2 restart
 1462  rails s -p 80
 1463  sudo a2enmod ssl
 1464  sudo service apache2 restart
 1465  cd ..
 1466  vim /etc/apache2/sites-available/spacecomby.conf 
 1467  sudo service apache2 restart
 1468  cd Github/
 1469  rails s -p 80
 1470  rails s -p 80 -d
 1471  clear
 1472  cd /etc/apache2
 1473  ls
 1474  cd sites-available/
 1475  ls
 1476  vim default-ssl.conf 
 1477  cd ../sites-enable
 1478  ls
 1479  cd ..
 1480  cd sites-enabled/
 1481  ls
 1482  exit
 1483  ps aux | grep rails
 1484  kill -9 24214
 1485  rails s -p 80
 1486  clear
 1487  rails s -p 80 -d
 1488  apache2ctl -V | grep SERVER_CONFIG_FILE
 1489  vim /etc/apache2/apache2.conf 
 1490  ps aux | grep rails
 1491  kill -9 26053
 1492  rails s -p 80
 1493  clear
 1494  rails s -p 80 -d
 1495  exit
 1496  ps aux | grep rails
 1497  kill -9 28965
 1498  ps aux | grep rails
 1499  rails s -p 80
 1500  exit
 1501  rails s -p 80
 1502  vim vendor/assets/stylesheets/style.css 
 1503  rails s -p 80 -d 
 1504  exit
 1505  shutdown now
 1506  cd ..bundle exec rake sunspot:solr:start
 1507  bundle exec rake sunspot:solr:start
 1508  rails s -p 80 -d
 1509  top
 1510  rails s -p 80 -d
 1511  top
 1512  sudo service apache2 restart
 1513  exit
 1514  service apache2 restart
 1515  ps aux | grep apache2
 1516  service apache2 stop
 1517  ps aux | grep apache2
 1518  kill -9 1180
 1519  kill -9 1248
 1520  kill -9 1267
 1521  service apache2 restart
 1522  ls
 1523  ps aux | grep apache2
 1524  service apache2 stop
 1525  service apache2 start
 1526  vim /var/log/apache2/error.log
 1527  vim /var/log/apache2/error.log.10.gz 
 1528  vim /var/log/apache2/ssl_access.log
 1529  vim /var/log/apache2/error.log
 1530  vim config/environments/development.rb 
 1531  vim config/application.rb 
 1532  ps aux | grep rails
 1533  kill -9 1630
 1534  rails s -p 80 -d
 1535  vim /etc/apache2/ports.conf
 1536  service apache2 restart
 1537  service apache2 start
 1538  cd /var/www/Github/
 1539  vim config/application.rb 
 1540  ps aux | grep rails
 1541  kill -9 3112
 1542  rails s -p 80 -d
 1543  ps aux | grep rails
 1544  kill -9 4563
 1545  vim config/application.rb 
 1546  rails s -p 80 -d
 1547  ps aux | grep rails
 1548  kill -9 4584
 1549  rails s -p 80 -d
 1550  clear
 1551  cd /var/www/Github/
 1552  rails s -p 80 -d
 1553  cd /etc/apache2/ssl
 1554  ls
 1555  cd /etc/apache2/
 1556  cd sites-available/
 1557  ls
 1558  sudo vim spacecomby.conf 
 1559  cd ..
 1560  sudo vim ports.conf
 1561  sudo service apache2 restart
 1562  clear
 1563  ls
 1564  cd sites-a
 1565  cd sites-available/
 1566  ls
 1567  sudo vim spacecomby.conf 
 1568  sudo service apache2 restart
 1569  cd ..
 1570  sudo vim ports.conf 
 1571  sudo service apache2 restart
 1572  ls
 1573  cd sites-available/
 1574  vim spacecomby.conf 
 1575  clear
 1576  ls
 1577  ps aux | grep rails
 1578  kill -9 5237
 1579  rails s -p 80
 1580  clear
 1581  ls
 1582  ps aux | grep rails
 1583  rails s -p 80
 1584  clear
 1585  cd ..
 1586  cd Github/
 1587  vim config/application.rb 
 1588  rails s -p 80 -d
 1589  ps aux | grep rails
 1590  kill -9 6596
 1591  ls
 1592  clear
 1593  sudo service apache2 restart
 1594  rails s -p 80
 1595  vim config/application.rb 
 1596  sudo service apache2 restart
 1597  rails s -p 80
 1598  ps aux | grep rails
 1599  kill -9 6726
 1600  rails s -p 80
 1601  vim config/application.rb 
 1602  rails s -p 80
 1603  clear
 1604  rails s -p 80
 1605  sudo vim /etc/apache2/sites-available/spacecomby.conf 
 1606  ps aux | grep rails
 1607  rails s -p 80 -d
 1608  exit
 1609  kill -9 8340
 1610  rails s -p 80 -d
 1611  exit
 1612  ps aux | grep rails
 1613  kill -9 8950
 1614  ls
 1615  rails s -p 80 -d
 1616  exit
 1617  ps aux | grep rails
 1618  kill -9 9073
 1619  rails s -p 80 -d
 1620  exit
 1621  history
 1622  exit
 1623  apt-get update
 1624  apt-get upgrade
 1625  cd /var/www/Github/
 1626  reboot
 1627  cd /var/www/Github/
 1628  bundle exec rake sunspot:solr:start
 1629  rails s -p 80 -d
 1630  cdGit
 1631  cd Github/
 1632  export LANGUAGE=en_US.UTF-8
 1633  export LANG=en_US.UTF-8
 1634  export LC_ALL=en_US.UTF-8
 1635  locale-gen en_US.UTF-8
 1636  sudo dpkg-reconfigure locales
 1637  bundle exec rake sunspot:solr:start
 1638  rails s -p 80 -d
 1639  top
 1640  history
 1641  shutdown now
 1642  bundle exec rake sunspot:solr:start
 1643  rails s -p 80 -d
 1644  top
 1645  history >> history1.txt
