Nov 18, 2013 8:31:06 AM org.apache.solr.servlet.SolrDispatchFilter init
INFO: SolrDispatchFilter.init()
Nov 18, 2013 8:31:06 AM org.apache.solr.core.SolrResourceLoader locateSolrHome
INFO: JNDI not configured for solr (NoInitialContextEx)
Nov 18, 2013 8:31:06 AM org.apache.solr.core.SolrResourceLoader locateSolrHome
INFO: using system property solr.solr.home: /var/www/Github/solr
Nov 18, 2013 8:31:06 AM org.apache.solr.core.CoreContainer$Initializer initialize
INFO: looking for solr.xml: /var/www/Github/solr/solr.xml
Nov 18, 2013 8:31:06 AM org.apache.solr.core.CoreContainer <init>
INFO: New CoreContainer 116115464
Nov 18, 2013 8:31:06 AM org.apache.solr.core.CoreContainer load
INFO: Loading CoreContainer using Solr Home: '/var/www/Github/solr/'
Nov 18, 2013 8:31:06 AM org.apache.solr.core.SolrResourceLoader <init>
INFO: new SolrResourceLoader for directory: '/var/www/Github/solr/'
Nov 18, 2013 8:31:08 AM org.apache.solr.handler.component.HttpShardHandlerFactory getParameter
INFO: Setting socketTimeout to: 0
Nov 18, 2013 8:31:08 AM org.apache.solr.handler.component.HttpShardHandlerFactory getParameter
INFO: Setting urlScheme to: http://
Nov 18, 2013 8:31:08 AM org.apache.solr.handler.component.HttpShardHandlerFactory getParameter
INFO: Setting connTimeout to: 0
Nov 18, 2013 8:31:08 AM org.apache.solr.handler.component.HttpShardHandlerFactory getParameter
INFO: Setting maxConnectionsPerHost to: 20
Nov 18, 2013 8:31:08 AM org.apache.solr.handler.component.HttpShardHandlerFactory getParameter
INFO: Setting corePoolSize to: 0
Nov 18, 2013 8:31:08 AM org.apache.solr.handler.component.HttpShardHandlerFactory getParameter
INFO: Setting maximumPoolSize to: 2147483647
Nov 18, 2013 8:31:08 AM org.apache.solr.handler.component.HttpShardHandlerFactory getParameter
INFO: Setting maxThreadIdleTime to: 5
Nov 18, 2013 8:31:08 AM org.apache.solr.handler.component.HttpShardHandlerFactory getParameter
INFO: Setting sizeOfQueue to: -1
Nov 18, 2013 8:31:08 AM org.apache.solr.handler.component.HttpShardHandlerFactory getParameter
INFO: Setting fairnessPolicy to: false
Nov 18, 2013 8:31:08 AM org.apache.solr.client.solrj.impl.HttpClientUtil createClient
INFO: Creating new http client, config:maxConnectionsPerHost=20&maxConnections=10000&socketTimeout=0&connTimeout=0&retry=false
Nov 18, 2013 8:31:08 AM org.apache.solr.core.CoreContainer load
INFO: Registering Log Listener
Nov 18, 2013 8:31:09 AM org.apache.solr.core.CoreContainer create
INFO: Creating SolrCore 'default' using instanceDir: /var/www/Github/solr/.
Nov 18, 2013 8:31:09 AM org.apache.solr.core.CoreContainer create
INFO: Creating SolrCore 'development' using instanceDir: /var/www/Github/solr/.
Nov 18, 2013 8:31:09 AM org.apache.solr.core.SolrResourceLoader <init>
INFO: new SolrResourceLoader for directory: '/var/www/Github/solr/./'
Nov 18, 2013 8:31:09 AM org.apache.solr.core.SolrResourceLoader <init>
INFO: new SolrResourceLoader for directory: '/var/www/Github/solr/./'
Nov 18, 2013 8:31:09 AM org.apache.solr.core.CoreContainer create
INFO: Creating SolrCore 'test' using instanceDir: /var/www/Github/solr/.
Nov 18, 2013 8:31:09 AM org.apache.solr.core.SolrResourceLoader <init>
INFO: new SolrResourceLoader for directory: '/var/www/Github/solr/./'
Nov 18, 2013 8:31:10 AM org.apache.solr.core.SolrConfig <init>
INFO: Using Lucene MatchVersion: LUCENE_41
Nov 18, 2013 8:31:10 AM org.apache.solr.core.SolrConfig <init>
INFO: Using Lucene MatchVersion: LUCENE_41
Nov 18, 2013 8:31:10 AM org.apache.solr.core.SolrConfig <init>
INFO: Using Lucene MatchVersion: LUCENE_41
Nov 18, 2013 8:31:11 AM org.apache.solr.core.SolrConfig <init>
INFO: Loaded SolrConfig: solrconfig.xml
Nov 18, 2013 8:31:11 AM org.apache.solr.core.SolrConfig <init>
INFO: Loaded SolrConfig: solrconfig.xml
Nov 18, 2013 8:31:11 AM org.apache.solr.schema.IndexSchema readSchema
INFO: Reading Solr Schema
Nov 18, 2013 8:31:11 AM org.apache.solr.schema.IndexSchema readSchema
INFO: Reading Solr Schema
Nov 18, 2013 8:31:11 AM org.apache.solr.schema.IndexSchema readSchema
INFO: Schema name=sunspot
Nov 18, 2013 8:31:11 AM org.apache.solr.core.SolrConfig <init>
INFO: Loaded SolrConfig: solrconfig.xml
Nov 18, 2013 8:31:11 AM org.apache.solr.schema.IndexSchema readSchema
INFO: Reading Solr Schema
Nov 18, 2013 8:31:11 AM org.apache.solr.schema.IndexSchema readSchema
INFO: Schema name=sunspot
Nov 18, 2013 8:31:12 AM org.apache.solr.schema.IndexSchema readSchema
INFO: Schema name=sunspot
Nov 18, 2013 8:31:13 AM org.apache.solr.schema.IndexSchema readSchema
INFO: default search field in schema is text
Nov 18, 2013 8:31:13 AM org.apache.solr.schema.IndexSchema readSchema
INFO: query parser default operator is AND
Nov 18, 2013 8:31:13 AM org.apache.solr.schema.IndexSchema readSchema
INFO: unique key field: id
Nov 18, 2013 8:31:13 AM org.apache.solr.schema.IndexSchema readSchema
INFO: default search field in schema is text
Nov 18, 2013 8:31:13 AM org.apache.solr.schema.IndexSchema readSchema
INFO: query parser default operator is AND
Nov 18, 2013 8:31:13 AM org.apache.solr.schema.IndexSchema readSchema
INFO: unique key field: id
Nov 18, 2013 8:31:13 AM org.apache.solr.schema.IndexSchema readSchema
INFO: default search field in schema is text
Nov 18, 2013 8:31:13 AM org.apache.solr.core.SolrCore <init>
INFO: [default] Opening new SolrCore at /var/www/Github/solr/./, dataDir=/var/www/Github/solr/./default/data/
Nov 18, 2013 8:31:13 AM org.apache.solr.core.SolrCore <init>
INFO: JMX monitoring not detected for core: default
Nov 18, 2013 8:31:13 AM org.apache.solr.core.SolrCore <init>
INFO: [test] Opening new SolrCore at /var/www/Github/solr/./, dataDir=/var/www/Github/solr/./test/data/
Nov 18, 2013 8:31:13 AM org.apache.solr.core.SolrCore <init>
INFO: JMX monitoring not detected for core: test
Nov 18, 2013 8:31:13 AM org.apache.solr.schema.IndexSchema readSchema
INFO: query parser default operator is AND
Nov 18, 2013 8:31:13 AM org.apache.solr.core.SolrCore initDirectoryFactory
INFO: solr.NRTCachingDirectoryFactory
Nov 18, 2013 8:31:13 AM org.apache.solr.schema.IndexSchema readSchema
INFO: unique key field: id
Nov 18, 2013 8:31:13 AM org.apache.solr.core.SolrCore <init>
INFO: [development] Opening new SolrCore at /var/www/Github/solr/./, dataDir=/var/www/Github/solr/./development/data/
Nov 18, 2013 8:31:13 AM org.apache.solr.core.SolrCore <init>
INFO: JMX monitoring not detected for core: development
Nov 18, 2013 8:31:13 AM org.apache.solr.core.SolrCore initDirectoryFactory
INFO: solr.NRTCachingDirectoryFactory
Nov 18, 2013 8:31:13 AM org.apache.solr.core.SolrCore initDirectoryFactory
INFO: solr.NRTCachingDirectoryFactory
Nov 18, 2013 8:31:13 AM org.apache.solr.core.CachingDirectoryFactory get
INFO: return new directory for /var/www/Github/solr/./test/data forceNew: false
Nov 18, 2013 8:31:13 AM org.apache.solr.core.SolrCore getNewIndexDir
INFO: New index directory detected: old=null new=/var/www/Github/solr/./test/data/index/
Nov 18, 2013 8:31:13 AM org.apache.solr.core.CachingDirectoryFactory get
INFO: return new directory for /var/www/Github/solr/./default/data forceNew: false
Nov 18, 2013 8:31:13 AM org.apache.solr.core.SolrCore getNewIndexDir
INFO: New index directory detected: old=null new=/var/www/Github/solr/./default/data/index/
Nov 18, 2013 8:31:13 AM org.apache.solr.core.CachingDirectoryFactory get
INFO: return new directory for /var/www/Github/solr/./default/data/index forceNew: false
Nov 18, 2013 8:31:13 AM org.apache.solr.core.CachingDirectoryFactory get
INFO: return new directory for /var/www/Github/solr/./development/data forceNew: false
Nov 18, 2013 8:31:13 AM org.apache.solr.core.CachingDirectoryFactory get
INFO: return new directory for /var/www/Github/solr/./test/data/index forceNew: false
Nov 18, 2013 8:31:13 AM org.apache.solr.core.SolrCore getNewIndexDir
INFO: New index directory detected: old=null new=/var/www/Github/solr/./development/data/index/
Nov 18, 2013 8:31:13 AM org.apache.solr.core.CachingDirectoryFactory get
INFO: return new directory for /var/www/Github/solr/./development/data/index forceNew: false
Nov 18, 2013 8:31:13 AM org.apache.solr.core.SolrCore initIndex
WARNING: [development] WARNING: Solr index directory '/var/www/Github/solr/./development/data/index/' is locked.  Unlocking...
Nov 18, 2013 8:31:13 AM org.apache.solr.core.SolrCore close
INFO: [development]  CLOSING SolrCore org.apache.solr.core.SolrCore@6cbcd542
Nov 18, 2013 8:31:13 AM org.apache.solr.update.SolrCoreState decrefSolrCoreState
INFO: Closing SolrCoreState
Nov 18, 2013 8:31:13 AM org.apache.solr.update.DefaultSolrCoreState closeIndexWriter
INFO: SolrCoreState ref count has reached 0 - closing IndexWriter
Nov 18, 2013 8:31:13 AM org.apache.solr.core.SolrCore closeSearcher
INFO: [development] Closing main searcher on request.
Nov 18, 2013 8:31:13 AM org.apache.solr.core.CachingDirectoryFactory close
INFO: Closing directory when closing factory: /var/www/Github/solr/./development/data
Nov 18, 2013 8:31:13 AM org.apache.solr.core.CachingDirectoryFactory closeDirectory
INFO: Closing directory: /var/www/Github/solr/./development/data
Nov 18, 2013 8:31:13 AM org.apache.solr.core.CachingDirectoryFactory close
INFO: Closing directory when closing factory: /var/www/Github/solr/./development/data/index
Nov 18, 2013 8:31:13 AM org.apache.solr.core.CachingDirectoryFactory closeDirectory
INFO: Closing directory: /var/www/Github/solr/./development/data/index
Nov 18, 2013 8:31:13 AM org.apache.solr.core.CoreContainer recordAndThrow
SEVERE: Unable to create core: development
org.apache.solr.common.SolrException: Cannot forcefully unlock a NativeFSLock which is held by another indexer component: /var/www/Github/solr/./development/data/index/write.lock
	at org.apache.solr.core.SolrCore.<init>(SolrCore.java:806)
	at org.apache.solr.core.SolrCore.<init>(SolrCore.java:619)
	at org.apache.solr.core.CoreContainer.createFromLocal(CoreContainer.java:1021)
	at org.apache.solr.core.CoreContainer.create(CoreContainer.java:1051)
	at org.apache.solr.core.CoreContainer$3.call(CoreContainer.java:634)
	at org.apache.solr.core.CoreContainer$3.call(CoreContainer.java:629)
	at java.util.concurrent.FutureTask$Sync.innerRun(FutureTask.java:334)
	at java.util.concurrent.FutureTask.run(FutureTask.java:166)
	at java.util.concurrent.Executors$RunnableAdapter.call(Executors.java:471)
	at java.util.concurrent.FutureTask$Sync.innerRun(FutureTask.java:334)
	at java.util.concurrent.FutureTask.run(FutureTask.java:166)
	at java.util.concurrent.ThreadPoolExecutor.runWorker(ThreadPoolExecutor.java:1145)
	at java.util.concurrent.ThreadPoolExecutor$Worker.run(ThreadPoolExecutor.java:615)
	at java.lang.Thread.run(Thread.java:724)
Caused by: org.apache.lucene.store.LockReleaseFailedException: Cannot forcefully unlock a NativeFSLock which is held by another indexer component: /var/www/Github/solr/./development/data/index/write.lock
	at org.apache.lucene.store.NativeFSLock.release(NativeFSLockFactory.java:295)
	at org.apache.lucene.index.IndexWriter.unlock(IndexWriter.java:4089)
	at org.apache.solr.core.SolrCore.initIndex(SolrCore.java:479)
	at org.apache.solr.core.SolrCore.<init>(SolrCore.java:730)
	... 13 more

Nov 18, 2013 8:31:13 AM org.apache.solr.common.SolrException log
SEVERE: null:org.apache.solr.common.SolrException: Unable to create core: development
	at org.apache.solr.core.CoreContainer.recordAndThrow(CoreContainer.java:1672)
	at org.apache.solr.core.CoreContainer.create(CoreContainer.java:1057)
	at org.apache.solr.core.CoreContainer$3.call(CoreContainer.java:634)
	at org.apache.solr.core.CoreContainer$3.call(CoreContainer.java:629)
	at java.util.concurrent.FutureTask$Sync.innerRun(FutureTask.java:334)
	at java.util.concurrent.FutureTask.run(FutureTask.java:166)
	at java.util.concurrent.Executors$RunnableAdapter.call(Executors.java:471)
	at java.util.concurrent.FutureTask$Sync.innerRun(FutureTask.java:334)
	at java.util.concurrent.FutureTask.run(FutureTask.java:166)
	at java.util.concurrent.ThreadPoolExecutor.runWorker(ThreadPoolExecutor.java:1145)
	at java.util.concurrent.ThreadPoolExecutor$Worker.run(ThreadPoolExecutor.java:615)
	at java.lang.Thread.run(Thread.java:724)
Caused by: org.apache.solr.common.SolrException: Cannot forcefully unlock a NativeFSLock which is held by another indexer component: /var/www/Github/solr/./development/data/index/write.lock
	at org.apache.solr.core.SolrCore.<init>(SolrCore.java:806)
	at org.apache.solr.core.SolrCore.<init>(SolrCore.java:619)
	at org.apache.solr.core.CoreContainer.createFromLocal(CoreContainer.java:1021)
	at org.apache.solr.core.CoreContainer.create(CoreContainer.java:1051)
	... 10 more
Caused by: org.apache.lucene.store.LockReleaseFailedException: Cannot forcefully unlock a NativeFSLock which is held by another indexer component: /var/www/Github/solr/./development/data/index/write.lock
	at org.apache.lucene.store.NativeFSLock.release(NativeFSLockFactory.java:295)
	at org.apache.lucene.index.IndexWriter.unlock(IndexWriter.java:4089)
	at org.apache.solr.core.SolrCore.initIndex(SolrCore.java:479)
	at org.apache.solr.core.SolrCore.<init>(SolrCore.java:730)
	... 13 more

Nov 18, 2013 8:31:14 AM org.apache.solr.core.RequestHandlers initHandlersFromConfig
INFO: created /select: solr.SearchHandler
Nov 18, 2013 8:31:14 AM org.apache.solr.core.RequestHandlers initHandlersFromConfig
INFO: created /query: solr.SearchHandler
Nov 18, 2013 8:31:14 AM org.apache.solr.core.RequestHandlers initHandlersFromConfig
INFO: created /select: solr.SearchHandler
Nov 18, 2013 8:31:14 AM org.apache.solr.core.RequestHandlers initHandlersFromConfig
INFO: created /query: solr.SearchHandler
Nov 18, 2013 8:31:14 AM org.apache.solr.core.RequestHandlers initHandlersFromConfig
INFO: created /get: solr.RealTimeGetHandler
Nov 18, 2013 8:31:14 AM org.apache.solr.core.RequestHandlers initHandlersFromConfig
INFO: created /update: solr.UpdateRequestHandler
Nov 18, 2013 8:31:14 AM org.apache.solr.core.RequestHandlers initHandlersFromConfig
INFO: created /get: solr.RealTimeGetHandler
Nov 18, 2013 8:31:14 AM org.apache.solr.core.RequestHandlers initHandlersFromConfig
INFO: created /update: solr.UpdateRequestHandler
Nov 18, 2013 8:31:14 AM org.apache.solr.core.RequestHandlers initHandlersFromConfig
INFO: created /update/json: solr.JsonUpdateRequestHandler
Nov 18, 2013 8:31:14 AM org.apache.solr.core.RequestHandlers initHandlersFromConfig
INFO: created /update/json: solr.JsonUpdateRequestHandler
Nov 18, 2013 8:31:14 AM org.apache.solr.core.RequestHandlers initHandlersFromConfig
INFO: created /update/csv: solr.CSVRequestHandler
Nov 18, 2013 8:31:14 AM org.apache.solr.core.RequestHandlers initHandlersFromConfig
INFO: adding lazy requestHandler: solr.extraction.ExtractingRequestHandler
Nov 18, 2013 8:31:14 AM org.apache.solr.core.RequestHandlers initHandlersFromConfig
INFO: created /update/extract: solr.extraction.ExtractingRequestHandler
Nov 18, 2013 8:31:14 AM org.apache.solr.core.RequestHandlers initHandlersFromConfig
INFO: adding lazy requestHandler: solr.FieldAnalysisRequestHandler
Nov 18, 2013 8:31:14 AM org.apache.solr.core.RequestHandlers initHandlersFromConfig
INFO: created /analysis/field: solr.FieldAnalysisRequestHandler
Nov 18, 2013 8:31:14 AM org.apache.solr.core.RequestHandlers initHandlersFromConfig
INFO: adding lazy requestHandler: solr.DocumentAnalysisRequestHandler
Nov 18, 2013 8:31:14 AM org.apache.solr.core.RequestHandlers initHandlersFromConfig
INFO: created /update/csv: solr.CSVRequestHandler
Nov 18, 2013 8:31:14 AM org.apache.solr.core.RequestHandlers initHandlersFromConfig
INFO: adding lazy requestHandler: solr.extraction.ExtractingRequestHandler
Nov 18, 2013 8:31:14 AM org.apache.solr.core.RequestHandlers initHandlersFromConfig
INFO: created /update/extract: solr.extraction.ExtractingRequestHandler
Nov 18, 2013 8:31:14 AM org.apache.solr.core.RequestHandlers initHandlersFromConfig
INFO: adding lazy requestHandler: solr.FieldAnalysisRequestHandler
Nov 18, 2013 8:31:14 AM org.apache.solr.core.RequestHandlers initHandlersFromConfig
INFO: created /analysis/field: solr.FieldAnalysisRequestHandler
Nov 18, 2013 8:31:14 AM org.apache.solr.core.RequestHandlers initHandlersFromConfig
INFO: adding lazy requestHandler: solr.DocumentAnalysisRequestHandler
Nov 18, 2013 8:31:14 AM org.apache.solr.core.RequestHandlers initHandlersFromConfig
INFO: created /analysis/document: solr.DocumentAnalysisRequestHandler
Nov 18, 2013 8:31:14 AM org.apache.solr.core.RequestHandlers initHandlersFromConfig
INFO: created /analysis/document: solr.DocumentAnalysisRequestHandler
Nov 18, 2013 8:31:14 AM org.apache.solr.core.RequestHandlers initHandlersFromConfig
INFO: created /admin/ping: solr.PingRequestHandler
Nov 18, 2013 8:31:14 AM org.apache.solr.core.RequestHandlers initHandlersFromConfig
INFO: created /admin/ping: solr.PingRequestHandler
Nov 18, 2013 8:31:14 AM org.apache.solr.core.RequestHandlers initHandlersFromConfig
INFO: created /debug/dump: solr.DumpRequestHandler
Nov 18, 2013 8:31:14 AM org.apache.solr.core.RequestHandlers initHandlersFromConfig
INFO: created /debug/dump: solr.DumpRequestHandler
Nov 18, 2013 8:31:14 AM org.apache.solr.core.RequestHandlers initHandlersFromConfig
INFO: created /replication: solr.ReplicationHandler
Nov 18, 2013 8:31:14 AM org.apache.solr.core.RequestHandlers initHandlersFromConfig
INFO: created /replication: solr.ReplicationHandler
Nov 18, 2013 8:31:14 AM org.apache.solr.core.RequestHandlers initHandlersFromConfig
INFO: created /mlt: solr.MoreLikeThisHandler
Nov 18, 2013 8:31:14 AM org.apache.solr.core.RequestHandlers initHandlersFromConfig
INFO: created /mlt: solr.MoreLikeThisHandler
Nov 18, 2013 8:31:14 AM org.apache.solr.core.RequestHandlers initHandlersFromConfig
INFO: created /admin/: solr.admin.AdminHandlers
Nov 18, 2013 8:31:14 AM org.apache.solr.core.RequestHandlers initHandlersFromConfig
INFO: created /admin/: solr.admin.AdminHandlers
Nov 18, 2013 8:31:14 AM org.apache.solr.handler.loader.XMLLoader init
INFO: xsltCacheLifetimeSeconds=60
Nov 18, 2013 8:31:14 AM org.apache.solr.handler.loader.XMLLoader init
INFO: xsltCacheLifetimeSeconds=60
Nov 18, 2013 8:31:14 AM org.apache.solr.handler.loader.XMLLoader init
INFO: xsltCacheLifetimeSeconds=60
Nov 18, 2013 8:31:14 AM org.apache.solr.handler.loader.XMLLoader init
INFO: xsltCacheLifetimeSeconds=60
Nov 18, 2013 8:31:14 AM org.apache.solr.handler.loader.XMLLoader init
INFO: xsltCacheLifetimeSeconds=60
Nov 18, 2013 8:31:14 AM org.apache.solr.search.SolrIndexSearcher <init>
INFO: Opening Searcher@12289b8b main
Nov 18, 2013 8:31:14 AM org.apache.solr.handler.loader.XMLLoader init
INFO: xsltCacheLifetimeSeconds=60
Nov 18, 2013 8:31:14 AM org.apache.solr.search.SolrIndexSearcher <init>
INFO: Opening Searcher@66328ec4 main
Nov 18, 2013 8:31:14 AM org.apache.solr.update.CommitTracker <init>
INFO: Hard AutoCommit: if uncommited for 15000ms; 
Nov 18, 2013 8:31:14 AM org.apache.solr.update.CommitTracker <init>
INFO: Hard AutoCommit: if uncommited for 15000ms; 
Nov 18, 2013 8:31:14 AM org.apache.solr.update.CommitTracker <init>
INFO: Soft AutoCommit: if uncommited for 5000ms; 
Nov 18, 2013 8:31:14 AM org.apache.solr.handler.component.SpellCheckComponent inform
INFO: Initializing spell checkers
Nov 18, 2013 8:31:14 AM org.apache.solr.update.CommitTracker <init>
INFO: Soft AutoCommit: if uncommited for 5000ms; 
Nov 18, 2013 8:31:14 AM org.apache.solr.handler.component.SpellCheckComponent inform
INFO: Initializing spell checkers
Nov 18, 2013 8:31:14 AM org.apache.solr.spelling.DirectSolrSpellChecker init
INFO: init: {name=default,field=name,classname=solr.DirectSolrSpellChecker,distanceMeasure=internal,accuracy=0.5,maxEdits=2,minPrefix=1,maxInspections=5,minQueryLength=4,maxQueryFrequency=0.01}
Nov 18, 2013 8:31:14 AM org.apache.solr.spelling.DirectSolrSpellChecker init
INFO: init: {name=default,field=name,classname=solr.DirectSolrSpellChecker,distanceMeasure=internal,accuracy=0.5,maxEdits=2,minPrefix=1,maxInspections=5,minQueryLength=4,maxQueryFrequency=0.01}
Nov 18, 2013 8:31:14 AM org.apache.solr.handler.component.SpellCheckComponent inform
INFO: No queryConverter defined, using default converter
Nov 18, 2013 8:31:14 AM org.apache.solr.handler.component.SpellCheckComponent inform
INFO: No queryConverter defined, using default converter
Nov 18, 2013 8:31:14 AM org.apache.solr.handler.ReplicationHandler inform
INFO: Commits will be reserved for  10000
Nov 18, 2013 8:31:14 AM org.apache.solr.handler.ReplicationHandler inform
INFO: Commits will be reserved for  10000
Nov 18, 2013 8:31:14 AM org.apache.solr.core.SolrCore registerSearcher
INFO: [test] Registered new searcher Searcher@12289b8b main{StandardDirectoryReader(segments_1:1)}
Nov 18, 2013 8:31:14 AM org.apache.solr.core.SolrCore registerSearcher
INFO: [default] Registered new searcher Searcher@66328ec4 main{StandardDirectoryReader(segments_1:1)}
Nov 18, 2013 8:31:14 AM org.apache.solr.core.CoreContainer registerCore
INFO: registering core: test
Nov 18, 2013 8:31:14 AM org.apache.solr.core.CoreContainer registerCore
INFO: registering core: default
Nov 18, 2013 8:31:14 AM org.apache.solr.servlet.SolrDispatchFilter init
INFO: user.dir=/usr/local/rvm/gems/ruby-2.0.0-p247/bundler/gems/sunspot-d013ad3c9f86/sunspot_solr/solr
Nov 18, 2013 8:31:14 AM org.apache.solr.servlet.SolrDispatchFilter init
INFO: SolrDispatchFilter.init() done
